D:\testWorkSpace\forMultiple\blogjar\src\main\java\com\blog\tech\utils\service\TransformerService.java
D:\testWorkSpace\forMultiple\blogjar\src\main\java\com\blog\tech\dao\TokenDao.java
D:\testWorkSpace\forMultiple\blogjar\src\main\java\com\blog\tech\service\UserService.java
D:\testWorkSpace\forMultiple\blogjar\src\main\java\com\blog\tech\service\impl\TokenServiceImpl.java
D:\testWorkSpace\forMultiple\blogjar\src\main\java\com\blog\tech\dao\UserDao.java
D:\testWorkSpace\forMultiple\blogjar\src\main\java\com\blog\tech\model\TblCategories.java
D:\testWorkSpace\forMultiple\blogjar\src\main\java\com\blog\tech\dto\TokenDto.java
D:\testWorkSpace\forMultiple\blogjar\src\main\java\com\blog\tech\dto\AuthToken.java
D:\testWorkSpace\forMultiple\blogjar\src\main\java\com\blog\tech\dto\UserDto.java
D:\testWorkSpace\forMultiple\blogjar\src\main\java\com\blog\tech\config\BlogConfig.java
D:\testWorkSpace\forMultiple\blogjar\src\main\java\com\blog\tech\service\TokenService.java
D:\testWorkSpace\forMultiple\blogjar\src\main\java\com\blog\tech\model\TblBlogs.java
D:\testWorkSpace\forMultiple\blogjar\src\main\java\com\blog\tech\service\impl\PostsServiceImpl.java
D:\testWorkSpace\forMultiple\blogjar\src\main\java\com\blog\tech\dao\PostsDao.java
D:\testWorkSpace\forMultiple\blogjar\src\main\java\com\blog\tech\utils\service\impl\TransformerServiceImpl.java
D:\testWorkSpace\forMultiple\blogjar\src\main\java\com\blog\tech\service\impl\BlogsServiceImpl.java
D:\testWorkSpace\forMultiple\blogjar\src\main\java\com\blog\tech\service\impl\CategoriesServiceImpl.java
D:\testWorkSpace\forMultiple\blogjar\src\main\java\com\blog\tech\service\PostsService.java
D:\testWorkSpace\forMultiple\blogjar\src\main\java\com\blog\tech\dao\BlogsDao.java
D:\testWorkSpace\forMultiple\blogjar\src\main\java\com\blog\tech\service\impl\UserServiceImpl.java
D:\testWorkSpace\forMultiple\blogjar\src\main\java\com\blog\tech\model\TblPost.java
D:\testWorkSpace\forMultiple\blogjar\src\main\java\com\blog\tech\model\TblTokens.java
D:\testWorkSpace\forMultiple\blogjar\src\main\java\com\blog\tech\service\CategoriesService.java
D:\testWorkSpace\forMultiple\blogjar\src\main\java\com\blog\tech\dao\CategoriesDao.java
D:\testWorkSpace\forMultiple\blogjar\src\main\java\com\blog\tech\dto\PostsDto.java
D:\testWorkSpace\forMultiple\blogjar\src\main\java\com\blog\tech\dto\LoginUser.java
D:\testWorkSpace\forMultiple\blogjar\src\main\java\com\blog\tech\dto\ApiResponse.java
D:\testWorkSpace\forMultiple\blogjar\src\main\java\com\blog\tech\model\TblUser.java
D:\testWorkSpace\forMultiple\blogjar\src\main\java\com\blog\tech\service\BlogsService.java
